{
    "volumes": [],
    "executionRoleArn": "arn:aws:iam::AWSACCOUNT:role/ecsTaskExecutionRole-grocer-fullstack-dev",
    "networkMode": "awsvpc",
    "containerDefinitions": [
        {
            "name": "product-service",
            "environment": [
                {
                    "name": "ECS_FARGATE",
                    "value": "true"
                }
            ],
            "logConfiguration": {
                "logDriver": "awslogs",
                "options": {
                    "awslogs-group": "grocer-CHANGEENV",
                    "awslogs-multiline-pattern": "^ERROR|INFO|DEBUG|WARN",
                    "awslogs-region": "AWSREGION",
                    "awslogs-stream-prefix": "product-service"
                }
            },
            "portMappings": [
                {
                    "hostPort": 8002,
                    "protocol": "tcp",
                    "containerPort": 8002
                }
            ],
            "essential": true,
            "image": "AWSACCOUNT.dkr.ecr.AWSREGION.amazonaws.com/grocer-product-service:COMMITTAG"
        }
    ]
}
